^C:\USERS\ADMIN\APPDATA\LOCAL\TEMPORARY PROJECTS\YKP_SYSTEM\MAIN_FORM.RESX
C:\WINDOWS\ASSEMBLY\PUBPOL38.DAT
C:\WINDOWS\MICROSOFT.NET\ASSEMBLY\GAC_MSIL\MICROSOFT.BUILD.TASKS.V4.0\V4.0_4.0.0.0__B03F5F7F11D50A3A\MICROSOFT.BUILD.TASKS.V4.0.DLL
^C:\USERS\ADMIN\APPDATA\LOCAL\TEMPORARY PROJECTS\YKP_SYSTEM\MY PROJECT\RESOURCES.RESX
^D:\DOCUMENTS\VISUAL STUDIO 2008\PROJECTS\YKP_SYSTEM\YKP_SYSTEM\MY PROJECT\RESOURCES.RESX
D:\DOCUMENTS\VISUAL STUDIO 2008\PROJECTS\YKP_SYSTEM\YKP_SYSTEM\RESOURCES\CONTAINER-BROWN-ICON.PNG
D:\DOCUMENTS\VISUAL STUDIO 2008\PROJECTS\YKP_SYSTEM\YKP_SYSTEM\RESOURCES\IMAGES.JPG
D:\DOCUMENTS\VISUAL STUDIO 2008\PROJECTS\YKP_SYSTEM\YKP_SYSTEM\RESOURCES\IMAGES1.PNG
D:\DOCUMENTS\VISUAL STUDIO 2008\PROJECTS\YKP_SYSTEM\YKP_SYSTEM\RESOURCES\REPAIRDEPOT.PNG
D:\DOCUMENTS\VISUAL STUDIO 2008\PROJECTS\YKP_SYSTEM\YKP_SYSTEM\RESOURCES\PAGE_EDIT.PNG
D:\DOCUMENTS\VISUAL STUDIO 2008\PROJECTS\YKP_SYSTEM\YKP_SYSTEM\RESOURCES\GROUP_ADD.PNG
D:\DOCUMENTS\VISUAL STUDIO 2008\PROJECTS\YKP_SYSTEM\YKP_SYSTEM\RESOURCES\REPORT.PNG
D:\DOCUMENTS\VISUAL STUDIO 2008\PROJECTS\YKP_SYSTEM\YKP_SYSTEM\RESOURCES\REPORT_GO.PNG
D:\DOCUMENTS\VISUAL STUDIO 2008\PROJECTS\YKP_SYSTEM\YKP_SYSTEM\RESOURCES\GROUP_DELETE.PNG
D:\DOCUMENTS\VISUAL STUDIO 2008\PROJECTS\YKP_SYSTEM\YKP_SYSTEM\RESOURCES\DOCUMENT_COMMENT_ABOVE.PNG
D:\DOCUMENTS\VISUAL STUDIO 2008\PROJECTS\YKP_SYSTEM\YKP_SYSTEM\RESOURCES\GROUP_EDIT.PNG
D:\DOCUMENTS\VISUAL STUDIO 2008\PROJECTS\YKP_SYSTEM\YKP_SYSTEM\RESOURCES\REPORT_USER.PNG
D:\DOCUMENTS\VISUAL STUDIO 2008\PROJECTS\YKP_SYSTEM\YKP_SYSTEM\RESOURCES\LAYER_HIS.PNG
D:\DOCUMENTS\VISUAL STUDIO 2008\PROJECTS\YKP_SYSTEM\YKP_SYSTEM\RESOURCES\BLOGS.PNG
D:\DOCUMENTS\VISUAL STUDIO 2008\PROJECTS\YKP_SYSTEM\YKP_SYSTEM\RESOURCES\CHART_BAR.PNG
^D:\DOCUMENTS\VISUAL STUDIO 2008\PROJECTS\YKP_SYSTEM\YKP_SYSTEM\FRMADD_VOYAGE.RESX
^D:\DOCUMENTS\VISUAL STUDIO 2008\PROJECTS\YKP_SYSTEM\YKP_SYSTEM\FRMEDIT_VOYAGE.RESX
^D:\DOCUMENTS\VISUAL STUDIO 2008\PROJECTS\YKP_SYSTEM\YKP_SYSTEM\FRMSEARCH_VOYAGE.RESX
^D:\DOCUMENTS\VISUAL STUDIO 2008\PROJECTS\YKP_SYSTEM\YKP_SYSTEM\FRMSEARCH_ADDCONTAINER.RESX
^D:\DOCUMENTS\VISUAL STUDIO 2008\PROJECTS\YKP_SYSTEM\YKP_SYSTEM\FRMVIEW_CTNMOVE.RESX
^D:\DOCUMENTS\VISUAL STUDIO 2008\PROJECTS\YKP_SYSTEM\YKP_SYSTEM\FRMVIEW_CTNEMPTY.RESX
^D:\DOCUMENTS\VISUAL STUDIO 2008\PROJECTS\YKP_SYSTEM\YKP_SYSTEM\FRMADD_CONTAINER.RESX
^D:\DOCUMENTS\VISUAL STUDIO 2008\PROJECTS\YKP_SYSTEM\YKP_SYSTEM\FRMRPT_DAMAGE_CONTAINER.RESX
^D:\DOCUMENTS\VISUAL STUDIO 2008\PROJECTS\YKP_SYSTEM\YKP_SYSTEM\FRMADD_SHIPPER.RESX
^D:\DOCUMENTS\VISUAL STUDIO 2008\PROJECTS\YKP_SYSTEM\YKP_SYSTEM\FRMADD_VESSEL.RESX
^D:\DOCUMENTS\VISUAL STUDIO 2008\PROJECTS\YKP_SYSTEM\YKP_SYSTEM\FRMSEARCH_VESSEL.RESX
^D:\DOCUMENTS\VISUAL STUDIO 2008\PROJECTS\YKP_SYSTEM\YKP_SYSTEM\MAIN_FORM.RESX
C:\WINDOWS\ASSEMBLY\PUBPOL38.DAT
^D:\DESKTOP\YKP_SYSTEM\YKP_SYSTEM\MY PROJECT\RESOURCES.RESX
D:\DESKTOP\YKP_SYSTEM\YKP_SYSTEM\RESOURCES\IMAGES.JPG
D:\DESKTOP\YKP_SYSTEM\YKP_SYSTEM\RESOURCES\PAGE_EDIT.PNG
D:\DESKTOP\YKP_SYSTEM\YKP_SYSTEM\RESOURCES\GROUP_ADD.PNG
D:\DESKTOP\YKP_SYSTEM\YKP_SYSTEM\RESOURCES\IMAGES1.PNG
D:\DESKTOP\YKP_SYSTEM\YKP_SYSTEM\RESOURCES\REPORT.PNG
D:\DESKTOP\YKP_SYSTEM\YKP_SYSTEM\RESOURCES\REPORT_GO.PNG
D:\DESKTOP\YKP_SYSTEM\YKP_SYSTEM\RESOURCES\GROUP_DELETE.PNG
D:\DESKTOP\YKP_SYSTEM\YKP_SYSTEM\RESOURCES\REPAIRDEPOT.PNG
D:\DESKTOP\YKP_SYSTEM\YKP_SYSTEM\RESOURCES\CONTAINER-BROWN-ICON.PNG
D:\DESKTOP\YKP_SYSTEM\YKP_SYSTEM\RESOURCES\DOCUMENT_COMMENT_ABOVE.PNG
D:\DESKTOP\YKP_SYSTEM\YKP_SYSTEM\RESOURCES\GROUP_EDIT.PNG
D:\DESKTOP\YKP_SYSTEM\YKP_SYSTEM\RESOURCES\REPORT_USER.PNG
D:\DESKTOP\YKP_SYSTEM\YKP_SYSTEM\RESOURCES\LAYER_HIS.PNG
D:\DESKTOP\YKP_SYSTEM\YKP_SYSTEM\RESOURCES\BLOGS.PNG
D:\DESKTOP\YKP_SYSTEM\YKP_SYSTEM\RESOURCES\CHART_BAR.PNG
D:\DESKTOP\YKP_SYSTEM\YKP_SYSTEM\RESOURCES\ADDCONTAINER.PNG
D:\DESKTOP\YKP_SYSTEM\YKP_SYSTEM\RESOURCES\INFO.PNG
^D:\DESKTOP\YKP_SYSTEM\YKP_SYSTEM\FRMADD_VOYAGE.RESX
^D:\DESKTOP\YKP_SYSTEM\YKP_SYSTEM\FRMEDIT_CONSI.RESX
^D:\DESKTOP\YKP_SYSTEM\YKP_SYSTEM\FRMEDIT_SHIPPER.RESX
^D:\DESKTOP\YKP_SYSTEM\YKP_SYSTEM\FRMADD_CONSI.RESX
^D:\DESKTOP\YKP_SYSTEM\YKP_SYSTEM\FRMADD_VESSEL.RESX
^D:\DESKTOP\YKP_SYSTEM\YKP_SYSTEM\FRMEDIT_VESSEL.RESX
^D:\DESKTOP\YKP_SYSTEM\YKP_SYSTEM\FRMEDIT_VOYAGE.RESX
^D:\DESKTOP\YKP_SYSTEM\YKP_SYSTEM\FRMDEL_CONSI.RESX
^D:\DESKTOP\YKP_SYSTEM\YKP_SYSTEM\FRMDEL_SHIPPER.RESX
^D:\DESKTOP\YKP_SYSTEM\YKP_SYSTEM\FRMDEL_VESSEL.RESX
^D:\DESKTOP\YKP_SYSTEM\YKP_SYSTEM\FRMADD_SHIPPER.RESX
^D:\DESKTOP\YKP_SYSTEM\YKP_SYSTEM\FRMADD_CONTAINER.RESX
^D:\DESKTOP\YKP_SYSTEM\YKP_SYSTEM\FRMVIEW_CTNEMPTY.RESX
^D:\DESKTOP\YKP_SYSTEM\YKP_SYSTEM\FRMADD_BOOKING.RESX
^D:\DESKTOP\YKP_SYSTEM\YKP_SYSTEM\FRMADD_CTNDAMAGE.RESX
^D:\DESKTOP\YKP_SYSTEM\YKP_SYSTEM\FRMSEARCH_ADDCONTAINER.RESX
^D:\DESKTOP\YKP_SYSTEM\YKP_SYSTEM\FRMSEARCH_CONSI.RESX
^D:\DESKTOP\YKP_SYSTEM\YKP_SYSTEM\FRMSEARCH_SHIPPER.RESX
^D:\DESKTOP\YKP_SYSTEM\YKP_SYSTEM\FRMSEARCH_VESSEL.RESX
^D:\DESKTOP\YKP_SYSTEM\YKP_SYSTEM\FRMSEARCH_VOYAGE.RESX
^D:\DESKTOP\YKP_SYSTEM\YKP_SYSTEM\FRMSEARCH_VOYAGE1.RESX
^D:\DESKTOP\YKP_SYSTEM\YKP_SYSTEM\FRMVIEW_CTNDAMAGE.RESX
^D:\DESKTOP\YKP_SYSTEM\YKP_SYSTEM\FRMVIEW_VOYAGE.RESX
^D:\DESKTOP\YKP_SYSTEM\YKP_SYSTEM\FRMVIEW_CTNMOVE.RESX
^D:\DESKTOP\YKP_SYSTEM\YKP_SYSTEM\FRMADD_GATE.RESX
^D:\DESKTOP\YKP_SYSTEM\YKP_SYSTEM\FRMRPT_DAMAGE_CONTAINER.RESX
^D:\DESKTOP\YKP_SYSTEM\YKP_SYSTEM\FRMSEARCH_VOYAGE_DEPOT.RESX
^D:\DESKTOP\YKP_SYSTEM\YKP_SYSTEM\MAIN_FORM.RESX
C:\WINDOWS\ASSEMBLY\PUBPOL38.DAT
C:\WINDOWS\MICROSOFT.NET\ASSEMBLY\GAC_MSIL\MICROSOFT.BUILD.TASKS.V4.0\V4.0_4.0.0.0__B03F5F7F11D50A3A\MICROSOFT.BUILD.TASKS.V4.0.DLL
^D:\DESKTOP\YKP_SYSTEM\YKP-PROJECT-SYSTEM\YKP_SYSTEM\MY PROJECT\RESOURCES.RESX
D:\DESKTOP\YKP_SYSTEM\YKP-PROJECT-SYSTEM\YKP_SYSTEM\RESOURCES\CONTAINER-BROWN-ICON.PNG
D:\DESKTOP\YKP_SYSTEM\YKP-PROJECT-SYSTEM\YKP_SYSTEM\RESOURCES\PAGE_EDIT.PNG
D:\DESKTOP\YKP_SYSTEM\YKP-PROJECT-SYSTEM\YKP_SYSTEM\RESOURCES\GROUP_ADD.PNG
D:\DESKTOP\YKP_SYSTEM\YKP-PROJECT-SYSTEM\YKP_SYSTEM\RESOURCES\IMAGES.JPG
D:\DESKTOP\YKP_SYSTEM\YKP-PROJECT-SYSTEM\YKP_SYSTEM\RESOURCES\ADDCONTAINER.PNG
D:\DESKTOP\YKP_SYSTEM\YKP-PROJECT-SYSTEM\YKP_SYSTEM\RESOURCES\IMAGES1.PNG
D:\DESKTOP\YKP_SYSTEM\YKP-PROJECT-SYSTEM\YKP_SYSTEM\RESOURCES\CHART_BAR.PNG
D:\DESKTOP\YKP_SYSTEM\YKP-PROJECT-SYSTEM\YKP_SYSTEM\RESOURCES\REPORT.PNG
D:\DESKTOP\YKP_SYSTEM\YKP-PROJECT-SYSTEM\YKP_SYSTEM\RESOURCES\REPORT_GO.PNG
D:\DESKTOP\YKP_SYSTEM\YKP-PROJECT-SYSTEM\YKP_SYSTEM\RESOURCES\GROUP_DELETE.PNG
D:\DESKTOP\YKP_SYSTEM\YKP-PROJECT-SYSTEM\YKP_SYSTEM\RESOURCES\REPAIRDEPOT.PNG
D:\DESKTOP\YKP_SYSTEM\YKP-PROJECT-SYSTEM\YKP_SYSTEM\RESOURCES\DOCUMENT_COMMENT_ABOVE.PNG
D:\DESKTOP\YKP_SYSTEM\YKP-PROJECT-SYSTEM\YKP_SYSTEM\RESOURCES\GROUP_EDIT.PNG
D:\DESKTOP\YKP_SYSTEM\YKP-PROJECT-SYSTEM\YKP_SYSTEM\RESOURCES\REPORT_USER.PNG
D:\DESKTOP\YKP_SYSTEM\YKP-PROJECT-SYSTEM\YKP_SYSTEM\RESOURCES\LAYER_HIS.PNG
D:\DESKTOP\YKP_SYSTEM\YKP-PROJECT-SYSTEM\YKP_SYSTEM\RESOURCES\BLOGS.PNG
D:\DESKTOP\YKP_SYSTEM\YKP-PROJECT-SYSTEM\YKP_SYSTEM\RESOURCES\INFO.PNG
D:\DESKTOP\YKP_SYSTEM\YKP-PROJECT-SYSTEM\YKP_SYSTEM\RESOURCES\RIBBONCALLIGRAPHY1.PNG
D:\DESKTOP\YKP_SYSTEM\YKP-PROJECT-SYSTEM\YKP_SYSTEM\RESOURCES\RIBBONCALLIGRAPHY2.PNG
D:\DESKTOP\YKP_SYSTEM\YKP-PROJECT-SYSTEM\YKP_SYSTEM\RESOURCES\RIBBONCIRCLEANDSTRIPES.PNG
D:\DESKTOP\YKP_SYSTEM\YKP-PROJECT-SYSTEM\YKP_SYSTEM\RESOURCES\RIBBONCIRCUIT.PNG
D:\DESKTOP\YKP_SYSTEM\YKP-PROJECT-SYSTEM\YKP_SYSTEM\RESOURCES\RIBBONCLOUDS.PNG
D:\DESKTOP\YKP_SYSTEM\YKP-PROJECT-SYSTEM\YKP_SYSTEM\RESOURCES\RIBBONDOODLECIRCLES.PNG
D:\DESKTOP\YKP_SYSTEM\YKP-PROJECT-SYSTEM\YKP_SYSTEM\RESOURCES\RIBBONDOODLEDIAMONDS.PNG
D:\DESKTOP\YKP_SYSTEM\YKP-PROJECT-SYSTEM\YKP_SYSTEM\RESOURCES\RIBBONGEOMETRY.PNG
D:\DESKTOP\YKP_SYSTEM\YKP-PROJECT-SYSTEM\YKP_SYSTEM\RESOURCES\RIBBONLUNCHBOX.PNG
D:\DESKTOP\YKP_SYSTEM\YKP-PROJECT-SYSTEM\YKP_SYSTEM\RESOURCES\RIBBONSCHOOLSTUFF.PNG
D:\DESKTOP\YKP_SYSTEM\YKP-PROJECT-SYSTEM\YKP_SYSTEM\RESOURCES\RIBBONSPRING.PNG
D:\DESKTOP\YKP_SYSTEM\YKP-PROJECT-SYSTEM\YKP_SYSTEM\RESOURCES\RIBBONSTARS.PNG
D:\DESKTOP\YKP_SYSTEM\YKP-PROJECT-SYSTEM\YKP_SYSTEM\RESOURCES\RIBBONSTRAWS.PNG
D:\DESKTOP\YKP_SYSTEM\YKP-PROJECT-SYSTEM\YKP_SYSTEM\RESOURCES\RIBBONTREERINGS.PNG
D:\DESKTOP\YKP_SYSTEM\YKP-PROJECT-SYSTEM\YKP_SYSTEM\RESOURCES\RIBBONUNDERWATER.PNG
D:\DESKTOP\YKP_SYSTEM\YKP-PROJECT-SYSTEM\YKP_SYSTEM\RESOURCES\OPENDOCUMENT.PNG
^D:\DESKTOP\YKP_SYSTEM\YKP-PROJECT-SYSTEM\YKP_SYSTEM\FRMRPT_BL.RESX
^D:\DESKTOP\YKP_SYSTEM\YKP-PROJECT-SYSTEM\YKP_SYSTEM\FRMADD_CONSI.RESX
^D:\DESKTOP\YKP_SYSTEM\YKP-PROJECT-SYSTEM\YKP_SYSTEM\FRMADD_CONTAINER.RESX
^D:\DESKTOP\YKP_SYSTEM\YKP-PROJECT-SYSTEM\YKP_SYSTEM\FRMADD_CTNDAMAGE.RESX
^D:\DESKTOP\YKP_SYSTEM\YKP-PROJECT-SYSTEM\YKP_SYSTEM\FRMADD_SHIPPER.RESX
^D:\DESKTOP\YKP_SYSTEM\YKP-PROJECT-SYSTEM\YKP_SYSTEM\FRMADD_VESSEL.RESX
^D:\DESKTOP\YKP_SYSTEM\YKP-PROJECT-SYSTEM\YKP_SYSTEM\FRMDEL_CONSI.RESX
^D:\DESKTOP\YKP_SYSTEM\YKP-PROJECT-SYSTEM\YKP_SYSTEM\FRMDEL_SHIPPER.RESX
^D:\DESKTOP\YKP_SYSTEM\YKP-PROJECT-SYSTEM\YKP_SYSTEM\FRMDEL_VESSEL.RESX
^D:\DESKTOP\YKP_SYSTEM\YKP-PROJECT-SYSTEM\YKP_SYSTEM\FRMEDIT_BOOKING.RESX
^D:\DESKTOP\YKP_SYSTEM\YKP-PROJECT-SYSTEM\YKP_SYSTEM\FRMEDIT_CONSI.RESX
^D:\DESKTOP\YKP_SYSTEM\YKP-PROJECT-SYSTEM\YKP_SYSTEM\FRMEDIT_SHIPPER.RESX
^D:\DESKTOP\YKP_SYSTEM\YKP-PROJECT-SYSTEM\YKP_SYSTEM\FRMEDIT_VESSEL.RESX
^D:\DESKTOP\YKP_SYSTEM\YKP-PROJECT-SYSTEM\YKP_SYSTEM\FRMEDIT_VOYAGE.RESX
^D:\DESKTOP\YKP_SYSTEM\YKP-PROJECT-SYSTEM\YKP_SYSTEM\FRMRPT_DAMAGE_CONTAINER.RESX
^D:\DESKTOP\YKP_SYSTEM\YKP-PROJECT-SYSTEM\YKP_SYSTEM\FRMSEARCH_ADDCONTAINER.RESX
^D:\DESKTOP\YKP_SYSTEM\YKP-PROJECT-SYSTEM\YKP_SYSTEM\FRMSEARCH_CONSI.RESX
^D:\DESKTOP\YKP_SYSTEM\YKP-PROJECT-SYSTEM\YKP_SYSTEM\FRMSEARCH_SHIPPER.RESX
^D:\DESKTOP\YKP_SYSTEM\YKP-PROJECT-SYSTEM\YKP_SYSTEM\FRMSEARCH_VESSEL.RESX
^D:\DESKTOP\YKP_SYSTEM\YKP-PROJECT-SYSTEM\YKP_SYSTEM\FRMSEARCH_VOYAGE.RESX
^D:\DESKTOP\YKP_SYSTEM\YKP-PROJECT-SYSTEM\YKP_SYSTEM\FRMSEARCH_VOYAGE1.RESX
^D:\DESKTOP\YKP_SYSTEM\YKP-PROJECT-SYSTEM\YKP_SYSTEM\FRMSEARCH_VOYAGE_DEPOT.RESX
^D:\DESKTOP\YKP_SYSTEM\YKP-PROJECT-SYSTEM\YKP_SYSTEM\FRMVIEW_CTNDAMAGE.RESX
^D:\DESKTOP\YKP_SYSTEM\YKP-PROJECT-SYSTEM\YKP_SYSTEM\FRMVIEW_CTNEMPTY.RESX
^D:\DESKTOP\YKP_SYSTEM\YKP-PROJECT-SYSTEM\YKP_SYSTEM\FRMVIEW_CTNMOVE.RESX
^D:\DESKTOP\YKP_SYSTEM\YKP-PROJECT-SYSTEM\YKP_SYSTEM\FRMRPT_BL1.RESX
^D:\DESKTOP\YKP_SYSTEM\YKP-PROJECT-SYSTEM\YKP_SYSTEM\FRMADD_VOYAGE.RESX
^D:\DESKTOP\YKP_SYSTEM\YKP-PROJECT-SYSTEM\YKP_SYSTEM\FRMADD_GATE.RESX
^D:\DESKTOP\YKP_SYSTEM\YKP-PROJECT-SYSTEM\YKP_SYSTEM\FRMRPT_GATEOUT.RESX
^D:\DESKTOP\YKP_SYSTEM\YKP-PROJECT-SYSTEM\YKP_SYSTEM\FRMRPT_GATIN.RESX
^D:\DESKTOP\YKP_SYSTEM\YKP-PROJECT-SYSTEM\YKP_SYSTEM\FRMVIEW_VOYAGE.RESX
^D:\DESKTOP\YKP_SYSTEM\YKP-PROJECT-SYSTEM\YKP_SYSTEM\FRMADD_BOOKING.RESX
^D:\DESKTOP\YKP_SYSTEM\YKP-PROJECT-SYSTEM\YKP_SYSTEM\MAIN_FORM.RESX
C:\WINDOWS\ASSEMBLY\PUBPOL38.DAT
C:\WINDOWS\MICROSOFT.NET\ASSEMBLY\GAC_MSIL\MICROSOFT.BUILD.TASKS.V4.0\V4.0_4.0.0.0__B03F5F7F11D50A3A\MICROSOFT.BUILD.TASKS.V4.0.DLL
^D:\DESKTOP\YKP SYSTEM\YKP_SYSTEM\FRMADD_CONSI.RESX
^D:\DESKTOP\YKP SYSTEM\YKP_SYSTEM\FRMADD_VESSEL.RESX
^D:\DESKTOP\YKP SYSTEM\YKP_SYSTEM\FRMDEL_CONSI.RESX
^D:\DESKTOP\YKP SYSTEM\YKP_SYSTEM\FRMDEL_SHIPPER.RESX
^D:\DESKTOP\YKP SYSTEM\YKP_SYSTEM\FRMDEL_VESSEL.RESX
^D:\DESKTOP\YKP SYSTEM\YKP_SYSTEM\FRMEDIT_CONSI.RESX
^D:\DESKTOP\YKP SYSTEM\YKP_SYSTEM\FRMEDIT_SHIPPER.RESX
^D:\DESKTOP\YKP SYSTEM\YKP_SYSTEM\FRMRPT_BL.RESX
^D:\DESKTOP\YKP SYSTEM\YKP_SYSTEM\FRMRPT_BL1.RESX
^D:\DESKTOP\YKP SYSTEM\YKP_SYSTEM\FRMRPT_DAMAGE_CONTAINER.RESX
^D:\DESKTOP\YKP SYSTEM\YKP_SYSTEM\FRMRPT_GATEOUT.RESX
^D:\DESKTOP\YKP SYSTEM\YKP_SYSTEM\FRMRPT_GATIN.RESX
^D:\DESKTOP\YKP SYSTEM\YKP_SYSTEM\FRMSEARCH_CONSI.RESX
^D:\DESKTOP\YKP SYSTEM\YKP_SYSTEM\FRMSEARCH_SHIPPER.RESX
^D:\DESKTOP\YKP SYSTEM\YKP_SYSTEM\FRMSEARCH_VESSEL.RESX
^D:\DESKTOP\YKP SYSTEM\YKP_SYSTEM\FRMSEARCH_VOYAGE.RESX
^D:\DESKTOP\YKP SYSTEM\YKP_SYSTEM\FRMSEARCH_VOYAGE1.RESX
^D:\DESKTOP\YKP SYSTEM\YKP_SYSTEM\FRMSEARCH_VOYAGE_DEPOT.RESX
^D:\DESKTOP\YKP SYSTEM\YKP_SYSTEM\FRMVIEW_CTNMOVE.RESX
^D:\DESKTOP\YKP SYSTEM\YKP_SYSTEM\MY PROJECT\RESOURCES.RESX
D:\DESKTOP\YKP SYSTEM\YKP_SYSTEM\RESOURCES\RIBBONGEOMETRY.PNG
D:\DESKTOP\YKP SYSTEM\YKP_SYSTEM\RESOURCES\RIBBONDOODLECIRCLES.PNG
D:\DESKTOP\YKP SYSTEM\YKP_SYSTEM\RESOURCES\RIBBONSCHOOLSTUFF.PNG
D:\DESKTOP\YKP SYSTEM\YKP_SYSTEM\RESOURCES\LAYER_HIS.PNG
D:\DESKTOP\YKP SYSTEM\YKP_SYSTEM\RESOURCES\RIBBONCIRCLEANDSTRIPES.PNG
D:\DESKTOP\YKP SYSTEM\YKP_SYSTEM\RESOURCES\PAGE_EDIT.PNG
D:\DESKTOP\YKP SYSTEM\YKP_SYSTEM\RESOURCES\RIBBONUNDERWATER.PNG
D:\DESKTOP\YKP SYSTEM\YKP_SYSTEM\RESOURCES\RIBBONTREERINGS.PNG
D:\DESKTOP\YKP SYSTEM\YKP_SYSTEM\RESOURCES\CONTAINER-BROWN-ICON.PNG
D:\DESKTOP\YKP SYSTEM\YKP_SYSTEM\RESOURCES\RIBBONCLOUDS.PNG
D:\DESKTOP\YKP SYSTEM\YKP_SYSTEM\RESOURCES\REPORT.PNG
D:\DESKTOP\YKP SYSTEM\YKP_SYSTEM\RESOURCES\IMAGES1.PNG
D:\DESKTOP\YKP SYSTEM\YKP_SYSTEM\RESOURCES\BLOGS.PNG
D:\DESKTOP\YKP SYSTEM\YKP_SYSTEM\RESOURCES\RIBBONCIRCUIT.PNG
D:\DESKTOP\YKP SYSTEM\YKP_SYSTEM\RESOURCES\RIBBONLUNCHBOX.PNG
D:\DESKTOP\YKP SYSTEM\YKP_SYSTEM\RESOURCES\GROUP_ADD.PNG
D:\DESKTOP\YKP SYSTEM\YKP_SYSTEM\RESOURCES\INFO.PNG
D:\DESKTOP\YKP SYSTEM\YKP_SYSTEM\RESOURCES\ADDCONTAINER.PNG
D:\DESKTOP\YKP SYSTEM\YKP_SYSTEM\RESOURCES\DOCUMENT_COMMENT_ABOVE.PNG
D:\DESKTOP\YKP SYSTEM\YKP_SYSTEM\RESOURCES\CHART_BAR.PNG
D:\DESKTOP\YKP SYSTEM\YKP_SYSTEM\RESOURCES\REPORT_USER.PNG
D:\DESKTOP\YKP SYSTEM\YKP_SYSTEM\RESOURCES\REPORT_GO.PNG
D:\DESKTOP\YKP SYSTEM\YKP_SYSTEM\RESOURCES\GROUP_DELETE.PNG
D:\DESKTOP\YKP SYSTEM\YKP_SYSTEM\RESOURCES\IMAGES.JPG
D:\DESKTOP\YKP SYSTEM\YKP_SYSTEM\RESOURCES\RIBBONSTRAWS.PNG
D:\DESKTOP\YKP SYSTEM\YKP_SYSTEM\RESOURCES\RIBBONCALLIGRAPHY2.PNG
D:\DESKTOP\YKP SYSTEM\YKP_SYSTEM\RESOURCES\GROUP_EDIT.PNG
D:\DESKTOP\YKP SYSTEM\YKP_SYSTEM\RESOURCES\RIBBONSTARS.PNG
D:\DESKTOP\YKP SYSTEM\YKP_SYSTEM\RESOURCES\RIBBONSPRING.PNG
D:\DESKTOP\YKP SYSTEM\YKP_SYSTEM\RESOURCES\REPAIRDEPOT.PNG
D:\DESKTOP\YKP SYSTEM\YKP_SYSTEM\RESOURCES\RIBBONCALLIGRAPHY1.PNG
D:\DESKTOP\YKP SYSTEM\YKP_SYSTEM\RESOURCES\RIBBONDOODLEDIAMONDS.PNG
D:\DESKTOP\YKP SYSTEM\YKP_SYSTEM\RESOURCES\OPENDOCUMENT.PNG
D:\DESKTOP\YKP SYSTEM\YKP_SYSTEM\RESOURCES\DEPOT_IMAGE.PNG
D:\DESKTOP\YKP SYSTEM\YKP_SYSTEM\RESOURCES\IMAGE1.BMP
^D:\DESKTOP\YKP SYSTEM\YKP_SYSTEM\FRMEDIT_VESSEL.RESX
^D:\DESKTOP\YKP SYSTEM\YKP_SYSTEM\FRMEXCEL_CTNMOVEMENT.RESX
^D:\DESKTOP\YKP SYSTEM\YKP_SYSTEM\FRMRPT_VOYAGEDAMAGE.RESX
^D:\DESKTOP\YKP SYSTEM\YKP_SYSTEM\FRMADD_DEPOT.RESX
^D:\DESKTOP\YKP SYSTEM\YKP_SYSTEM\FRMDEL_DEPOT.RESX
^D:\DESKTOP\YKP SYSTEM\YKP_SYSTEM\FRMEDIT_DEPOT.RESX
^D:\DESKTOP\YKP SYSTEM\YKP_SYSTEM\FRMSEARCH_CODEDEPOT.RESX
^D:\DESKTOP\YKP SYSTEM\YKP_SYSTEM\FRMVIEW_DEPOT.RESX
^D:\DESKTOP\YKP SYSTEM\YKP_SYSTEM\FRMADD_CTNDAMAGE.RESX
^D:\DESKTOP\YKP SYSTEM\YKP_SYSTEM\FRMADD_BOOKING.RESX
^D:\DESKTOP\YKP SYSTEM\YKP_SYSTEM\FRMVIEW_DEPOTCLEAN.RESX
^D:\DESKTOP\YKP SYSTEM\YKP_SYSTEM\FRMEDITBOOKING_VOYAGE.RESX
^D:\DESKTOP\YKP SYSTEM\YKP_SYSTEM\FRMADD_SHIPPER.RESX
^D:\DESKTOP\YKP SYSTEM\YKP_SYSTEM\FRMEDIT_BOOKING.RESX
^D:\DESKTOP\YKP SYSTEM\YKP_SYSTEM\FRMVIEW_VOYAGE.RESX
^D:\DESKTOP\YKP SYSTEM\YKP_SYSTEM\FRMADD_CONTAINER.RESX
^D:\DESKTOP\YKP SYSTEM\YKP_SYSTEM\FRMSEARCH_ADDCONTAINER.RESX
^D:\DESKTOP\YKP SYSTEM\YKP_SYSTEM\FRMADD_VOYAGE.RESX
^D:\DESKTOP\YKP SYSTEM\YKP_SYSTEM\FRMEDIT_VOYAGE.RESX
^D:\DESKTOP\YKP SYSTEM\YKP_SYSTEM\FRMADD_GATE.RESX
^D:\DESKTOP\YKP SYSTEM\YKP_SYSTEM\FRMVIEW_CTNDAMAGE.RESX
^D:\DESKTOP\YKP SYSTEM\YKP_SYSTEM\FRMVIEW_CTNEMPTY.RESX
^D:\DESKTOP\YKP SYSTEM\YKP_SYSTEM\FRMEDIT_GATE.RESX
^D:\DESKTOP\YKP SYSTEM\YKP_SYSTEM\FRMREPORT_DAILY.RESX
^D:\DESKTOP\YKP SYSTEM\YKP_SYSTEM\MAIN_FORM.RESX
C:\WINDOWS\ASSEMBLY\PUBPOL38.DAT
C:\WINDOWS\MICROSOFT.NET\ASSEMBLY\GAC_MSIL\MICROSOFT.BUILD.TASKS.V4.0\V4.0_4.0.0.0__B03F5F7F11D50A3A\MICROSOFT.BUILD.TASKS.V4.0.DLL
